.  .  .  .  .  .  .  .  .  .  .
.  .  .  .  .  .  .  .  .  .  .
.  .  .  .  .  .  .  .  .  .  .
5  .  4  .  3  .  3  .  4  .  5
5  .  4  .  3  .  3  .  4  .  5
5  .  4  .  3  .  3  .  4  .  5
5  .  9  1  9  1  9  1  9  .  5
5  .  4  .  3  .  3  .  4  .  5
5  .  4  .  3  .  3  .  4  .  5
5  .  4  .  3  .  3  .  4  .  5
5  .  4  .  3  .  3  .  4  .  5
5  .  4  .  3  .  3  .  4  .  5
1  .  9  .  9  .  9  .  9  .  1
5  .  4  .  3  .  3  .  4  .  5
.  .  .  .  .  .  .  .  .  .  .
.  .  .  .  .  .  .  .  .  .  .
.  .  .  .  .  .  .  .  .  .  .
.  .  .  .  .  .  .  .  .  .  .
